VSDMemSoC/output/pre_synth_sim/pre_synth_sim.vcd
$date
	Mon Dec 26 11:22:07 2022
$end
$version
	Icarus Verilog
$end
$timescale
	1ps
$end
$scope module vsdmemsoc_tb $end
$var wire 32 ! ROM [31:0] $end
$var wire 10 " OUT [9:0] $end
$var reg 1 # CLK $end
$var reg 8 $ init_addr [7:0] $end
$var reg 32 % init_data [31:0] $end
$var reg 1 & init_en $end
$var reg 1 ' reset $end
$var integer 32 ( i [31:0] $end
$scope module uut $end
$var wire 1 # CLK $end
$var wire 8 ) init_addr [7:0] $end
$var wire 32 * init_data [31:0] $end
$var wire 1 & init_en $end
$var wire 1 ' reset $end
$var wire 1 + mem_wr $end
$var wire 8 , mem_addr [7:0] $end
$var wire 32 - imem_data [31:0] $end
$var wire 10 . OUT [9:0] $end
$scope module cntlr $end
$var wire 1 # CLK $end
$var wire 8 / init_addr [7:0] $end
$var wire 1 & init_en $end
$var wire 1 ' reset $end
$var wire 1 + mem_wr $end
$var wire 8 0 mem_addr [7:0] $end
$var wire 32 1 imem_data [31:0] $end
$var wire 8 2 imem_addr [7:0] $end
$var wire 10 3 OUT [9:0] $end
$scope module core $end
$var wire 1 # CLK $end
$var wire 1 4 CPU_dmem_rd_en_a4 $end
$var wire 1 5 CPU_dmem_wr_en_a4 $end
$var wire 1 6 CPU_funct3_valid_a1 $end
$var wire 1 7 CPU_funct7_valid_a1 $end
$var wire 32 8 CPU_instr_a1 [31:0] $end
$var wire 1 9 CPU_is_i_instr_a1 $end
$var wire 1 : CPU_is_jump_a1 $end
$var wire 1 ; CPU_is_r_instr_a1 $end
$var wire 1 < CPU_is_s_instr_a1 $end
$var wire 1 = CPU_is_u_instr_a1 $end
$var wire 32 > CPU_ld_data_a5 [31:0] $end
$var wire 1 ? CPU_rd_valid_a1 $end
$var wire 1 @ CPU_reset_a0 $end
$var wire 32 A CPU_rf_rd_data1_a2 [31:0] $end
$var wire 32 B CPU_rf_rd_data2_a2 [31:0] $end
$var wire 1 C CPU_rf_rd_en1_a2 $end
$var wire 1 D CPU_rf_rd_en2_a2 $end
$var wire 5 E CPU_rf_rd_index1_a2 [4:0] $end
$var wire 5 F CPU_rf_rd_index2_a2 [4:0] $end
$var wire 1 G CPU_rf_wr_en_a3 $end
$var wire 1 H CPU_rs1_valid_a1 $end
$var wire 1 I CPU_rs2_valid_a1 $end
$var wire 1 J CPU_valid_jump_a3 $end
$var wire 1 K CPU_valid_load_a3 $end
$var wire 1 L CPU_valid_taken_br_a3 $end
$var wire 1 M clk $end
$var wire 1 ' reset $end
$var wire 32 N w_CPU_dmem_rd_data_a4 [31:0] $end
$var wire 5 O w_CPU_rs2_a1 [4:0] $end
$var wire 5 P w_CPU_rs1_a1 [4:0] $end
$var wire 5 Q w_CPU_rd_a1 [4:0] $end
$var wire 32 R imem_data [31:0] $end
$var wire 8 S imem_addr [7:0] $end
$var wire 1 T clkP_CPU_rs2_valid_a2 $end
$var wire 1 U clkP_CPU_rs1_valid_a2 $end
$var wire 1 V clkP_CPU_rd_valid_a5 $end
$var wire 1 W clkP_CPU_rd_valid_a4 $end
$var wire 1 X clkP_CPU_rd_valid_a3 $end
$var wire 1 Y clkP_CPU_rd_valid_a2 $end
$var wire 1 Z clkP_CPU_dmem_rd_en_a5 $end
$var wire 1 [ CPU_valid_a3 $end
$var wire 1 \ CPU_taken_br_a3 $end
$var wire 32 ] CPU_src2_value_a2 [31:0] $end
$var wire 32 ^ CPU_src1_value_a2 [31:0] $end
$var wire 1 _ CPU_sltu_result_a3 $end
$var wire 1 ` CPU_sltiu_result_a3 $end
$var wire 5 a CPU_rf_wr_index_a3 [4:0] $end
$var wire 32 b CPU_rf_wr_data_a3 [31:0] $end
$var wire 32 c CPU_result_a3 [31:0] $end
$var wire 32 d CPU_pc_a0 [31:0] $end
$var wire 7 e CPU_opcode_a1 [6:0] $end
$var wire 32 f CPU_jalr_tgt_pc_a2 [31:0] $end
$var wire 1 g CPU_is_xori_a1 $end
$var wire 1 h CPU_is_xor_a1 $end
$var wire 1 i CPU_is_sw_a1 $end
$var wire 1 j CPU_is_sub_a1 $end
$var wire 1 k CPU_is_srli_a1 $end
$var wire 1 l CPU_is_srl_a1 $end
$var wire 1 m CPU_is_srai_a1 $end
$var wire 1 n CPU_is_sra_a1 $end
$var wire 1 o CPU_is_sltu_a1 $end
$var wire 1 p CPU_is_sltiu_a1 $end
$var wire 1 q CPU_is_slti_a1 $end
$var wire 1 r CPU_is_slt_a1 $end
$var wire 1 s CPU_is_slli_a1 $end
$var wire 1 t CPU_is_sll_a1 $end
$var wire 1 u CPU_is_sh_a1 $end
$var wire 1 v CPU_is_sb_a1 $end
$var wire 1 w CPU_is_ori_a1 $end
$var wire 1 x CPU_is_or_a1 $end
$var wire 1 y CPU_is_lui_a1 $end
$var wire 1 z CPU_is_load_a1 $end
$var wire 1 { CPU_is_jalr_a1 $end
$var wire 1 | CPU_is_jal_a1 $end
$var wire 1 } CPU_is_j_instr_a1 $end
$var wire 1 ~ CPU_is_bne_a1 $end
$var wire 1 !" CPU_is_bltu_a1 $end
$var wire 1 "" CPU_is_blt_a1 $end
$var wire 1 #" CPU_is_bgeu_a1 $end
$var wire 1 $" CPU_is_bge_a1 $end
$var wire 1 %" CPU_is_beq_a1 $end
$var wire 1 &" CPU_is_b_instr_a1 $end
$var wire 1 '" CPU_is_auipc_a1 $end
$var wire 1 (" CPU_is_andi_a1 $end
$var wire 1 )" CPU_is_and_a1 $end
$var wire 1 *" CPU_is_addi_a1 $end
$var wire 1 +" CPU_is_add_a1 $end
$var wire 32 ," CPU_inc_pc_a1 [31:0] $end
$var wire 32 -" CPU_imm_a1 [31:0] $end
$var wire 7 ." CPU_funct7_a1 [6:0] $end
$var wire 3 /" CPU_funct3_a1 [2:0] $end
$var wire 32 0" CPU_dmem_wr_data_a4 [31:0] $end
$var wire 4 1" CPU_dmem_addr_a4 [3:0] $end
$var wire 11 2" CPU_dec_bits_a1 [10:0] $end
$var wire 32 3" CPU_br_tgt_pc_a2 [31:0] $end
$var reg 32 4" CPU_br_tgt_pc_a3 [31:0] $end
$var reg 32 5" CPU_dmem_rd_data_a5 [31:0] $end
$var reg 32 6" CPU_imm_a2 [31:0] $end
$var reg 32 7" CPU_imm_a3 [31:0] $end
$var reg 32 8" CPU_inc_pc_a2 [31:0] $end
$var reg 32 9" CPU_inc_pc_a3 [31:0] $end
$var reg 1 :" CPU_is_add_a2 $end
$var reg 1 ;" CPU_is_add_a3 $end
$var reg 1 <" CPU_is_addi_a2 $end
$var reg 1 =" CPU_is_addi_a3 $end
$var reg 1 >" CPU_is_and_a2 $end
$var reg 1 ?" CPU_is_and_a3 $end
$var reg 1 @" CPU_is_andi_a2 $end
$var reg 1 A" CPU_is_andi_a3 $end
$var reg 1 B" CPU_is_auipc_a2 $end
$var reg 1 C" CPU_is_auipc_a3 $end
$var reg 1 D" CPU_is_beq_a2 $end
$var reg 1 E" CPU_is_beq_a3 $end
$var reg 1 F" CPU_is_beq_a4 $end
$var reg 1 G" CPU_is_beq_a5 $end
$var reg 1 H" CPU_is_bge_a2 $end
$var reg 1 I" CPU_is_bge_a3 $end
$var reg 1 J" CPU_is_bge_a4 $end
$var reg 1 K" CPU_is_bge_a5 $end
$var reg 1 L" CPU_is_bgeu_a2 $end
$var reg 1 M" CPU_is_bgeu_a3 $end
$var reg 1 N" CPU_is_bgeu_a4 $end
$var reg 1 O" CPU_is_bgeu_a5 $end
$var reg 1 P" CPU_is_blt_a2 $end
$var reg 1 Q" CPU_is_blt_a3 $end
$var reg 1 R" CPU_is_blt_a4 $end
$var reg 1 S" CPU_is_blt_a5 $end
$var reg 1 T" CPU_is_bltu_a2 $end
$var reg 1 U" CPU_is_bltu_a3 $end
$var reg 1 V" CPU_is_bltu_a4 $end
$var reg 1 W" CPU_is_bltu_a5 $end
$var reg 1 X" CPU_is_bne_a2 $end
$var reg 1 Y" CPU_is_bne_a3 $end
$var reg 1 Z" CPU_is_bne_a4 $end
$var reg 1 [" CPU_is_bne_a5 $end
$var reg 1 \" CPU_is_jal_a2 $end
$var reg 1 ]" CPU_is_jal_a3 $end
$var reg 1 ^" CPU_is_jalr_a2 $end
$var reg 1 _" CPU_is_jalr_a3 $end
$var reg 1 `" CPU_is_jump_a2 $end
$var reg 1 a" CPU_is_jump_a3 $end
$var reg 1 b" CPU_is_load_a2 $end
$var reg 1 c" CPU_is_load_a3 $end
$var reg 1 d" CPU_is_lui_a2 $end
$var reg 1 e" CPU_is_lui_a3 $end
$var reg 1 f" CPU_is_or_a2 $end
$var reg 1 g" CPU_is_or_a3 $end
$var reg 1 h" CPU_is_ori_a2 $end
$var reg 1 i" CPU_is_ori_a3 $end
$var reg 1 j" CPU_is_s_instr_a2 $end
$var reg 1 k" CPU_is_s_instr_a3 $end
$var reg 1 l" CPU_is_s_instr_a4 $end
$var reg 1 m" CPU_is_sb_a2 $end
$var reg 1 n" CPU_is_sb_a3 $end
$var reg 1 o" CPU_is_sb_a4 $end
$var reg 1 p" CPU_is_sb_a5 $end
$var reg 1 q" CPU_is_sh_a2 $end
$var reg 1 r" CPU_is_sh_a3 $end
$var reg 1 s" CPU_is_sh_a4 $end
$var reg 1 t" CPU_is_sh_a5 $end
$var reg 1 u" CPU_is_sll_a2 $end
$var reg 1 v" CPU_is_sll_a3 $end
$var reg 1 w" CPU_is_slli_a2 $end
$var reg 1 x" CPU_is_slli_a3 $end
$var reg 1 y" CPU_is_slt_a2 $end
$var reg 1 z" CPU_is_slt_a3 $end
$var reg 1 {" CPU_is_slti_a2 $end
$var reg 1 |" CPU_is_slti_a3 $end
$var reg 1 }" CPU_is_sltiu_a2 $end
$var reg 1 ~" CPU_is_sltiu_a3 $end
$var reg 1 !# CPU_is_sltu_a2 $end
$var reg 1 "# CPU_is_sltu_a3 $end
$var reg 1 ## CPU_is_sra_a2 $end
$var reg 1 $# CPU_is_sra_a3 $end
$var reg 1 %# CPU_is_srai_a2 $end
$var reg 1 &# CPU_is_srai_a3 $end
$var reg 1 '# CPU_is_srl_a2 $end
$var reg 1 (# CPU_is_srl_a3 $end
$var reg 1 )# CPU_is_srli_a2 $end
$var reg 1 *# CPU_is_srli_a3 $end
$var reg 1 +# CPU_is_sub_a2 $end
$var reg 1 ,# CPU_is_sub_a3 $end
$var reg 1 -# CPU_is_sw_a2 $end
$var reg 1 .# CPU_is_sw_a3 $end
$var reg 1 /# CPU_is_sw_a4 $end
$var reg 1 0# CPU_is_sw_a5 $end
$var reg 1 1# CPU_is_xor_a2 $end
$var reg 1 2# CPU_is_xor_a3 $end
$var reg 1 3# CPU_is_xori_a2 $end
$var reg 1 4# CPU_is_xori_a3 $end
$var reg 32 5# CPU_jalr_tgt_pc_a3 [31:0] $end
$var reg 32 6# CPU_pc_a1 [31:0] $end
$var reg 32 7# CPU_pc_a2 [31:0] $end
$var reg 32 8# CPU_pc_a3 [31:0] $end
$var reg 5 9# CPU_rd_a2 [4:0] $end
$var reg 5 :# CPU_rd_a3 [4:0] $end
$var reg 5 ;# CPU_rd_a4 [4:0] $end
$var reg 5 <# CPU_rd_a5 [4:0] $end
$var reg 1 =# CPU_rd_valid_a2 $end
$var reg 1 ># CPU_rd_valid_a3 $end
$var reg 1 ?# CPU_rd_valid_a4 $end
$var reg 1 @# CPU_reset_a1 $end
$var reg 1 A# CPU_reset_a2 $end
$var reg 1 B# CPU_reset_a3 $end
$var reg 1 C# CPU_reset_a4 $end
$var reg 4 D# CPU_result_a4 [5:2] $end
$var reg 5 E# CPU_rs1_a2 [4:0] $end
$var reg 1 F# CPU_rs1_valid_a2 $end
$var reg 5 G# CPU_rs2_a2 [4:0] $end
$var reg 1 H# CPU_rs2_valid_a2 $end
$var reg 32 I# CPU_src1_value_a3 [31:0] $end
$var reg 32 J# CPU_src2_value_a3 [31:0] $end
$var reg 32 K# CPU_src2_value_a4 [31:0] $end
$var reg 1 L# CPU_valid_a4 $end
$var reg 1 M# CPU_valid_jump_a4 $end
$var reg 1 N# CPU_valid_jump_a5 $end
$var reg 1 O# CPU_valid_load_a4 $end
$var reg 1 P# CPU_valid_load_a5 $end
$var reg 1 Q# CPU_valid_taken_br_a4 $end
$var reg 1 R# CPU_valid_taken_br_a5 $end
$var reg 10 S# OUT [9:0] $end
$scope begin L1_CPU_Dmem[0] $end
$var wire 1 T# L1_wr_a4 $end
$upscope $end
$scope begin L1_CPU_Dmem[1] $end
$var wire 1 U# L1_wr_a4 $end
$upscope $end
$scope begin L1_CPU_Dmem[2] $end
$var wire 1 V# L1_wr_a4 $end
$upscope $end
$scope begin L1_CPU_Dmem[3] $end
$var wire 1 W# L1_wr_a4 $end
$upscope $end
$scope begin L1_CPU_Dmem[4] $end
$var wire 1 X# L1_wr_a4 $end
$upscope $end
$scope begin L1_CPU_Dmem[5] $end
$var wire 1 Y# L1_wr_a4 $end
$upscope $end
$scope begin L1_CPU_Dmem[6] $end
$var wire 1 Z# L1_wr_a4 $end
$upscope $end
$scope begin L1_CPU_Dmem[7] $end
$var wire 1 [# L1_wr_a4 $end
$upscope $end
$scope begin L1_CPU_Dmem[8] $end
$var wire 1 \# L1_wr_a4 $end
$upscope $end
$scope begin L1_CPU_Dmem[9] $end
$var wire 1 ]# L1_wr_a4 $end
$upscope $end
$scope begin L1_CPU_Dmem[10] $end
$var wire 1 ^# L1_wr_a4 $end
$upscope $end
$scope begin L1_CPU_Dmem[11] $end
$var wire 1 _# L1_wr_a4 $end
$upscope $end
$scope begin L1_CPU_Dmem[12] $end
$var wire 1 `# L1_wr_a4 $end
$upscope $end
$scope begin L1_CPU_Dmem[13] $end
$var wire 1 a# L1_wr_a4 $end
$upscope $end
$scope begin L1_CPU_Dmem[14] $end
$var wire 1 b# L1_wr_a4 $end
$upscope $end
$scope begin L1_CPU_Dmem[15] $end
$var wire 1 c# L1_wr_a4 $end
$upscope $end
$scope begin L1_CPU_Xreg[0] $end
$var wire 1 d# L1_wr_a3 $end
$upscope $end
$scope begin L1_CPU_Xreg[1] $end
$var wire 1 e# L1_wr_a3 $end
$upscope $end
$scope begin L1_CPU_Xreg[2] $end
$var wire 1 f# L1_wr_a3 $end
$upscope $end
$scope begin L1_CPU_Xreg[3] $end
$var wire 1 g# L1_wr_a3 $end
$upscope $end
$scope begin L1_CPU_Xreg[4] $end
$var wire 1 h# L1_wr_a3 $end
$upscope $end
$scope begin L1_CPU_Xreg[5] $end
$var wire 1 i# L1_wr_a3 $end
$upscope $end
$scope begin L1_CPU_Xreg[6] $end
$var wire 1 j# L1_wr_a3 $end
$upscope $end
$scope begin L1_CPU_Xreg[7] $end
$var wire 1 k# L1_wr_a3 $end
$upscope $end
$scope begin L1_CPU_Xreg[8] $end
$var wire 1 l# L1_wr_a3 $end
$upscope $end
$scope begin L1_CPU_Xreg[9] $end
$var wire 1 m# L1_wr_a3 $end
$upscope $end
$scope begin L1_CPU_Xreg[10] $end
$var wire 1 n# L1_wr_a3 $end
$upscope $end
$scope begin L1_CPU_Xreg[11] $end
$var wire 1 o# L1_wr_a3 $end
$upscope $end
$scope begin L1_CPU_Xreg[12] $end
$var wire 1 p# L1_wr_a3 $end
$upscope $end
$scope begin L1_CPU_Xreg[13] $end
$var wire 1 q# L1_wr_a3 $end
$upscope $end
$scope begin L1_CPU_Xreg[14] $end
$var wire 1 r# L1_wr_a3 $end
$upscope $end
$scope begin L1_CPU_Xreg[15] $end
$var wire 1 s# L1_wr_a3 $end
$upscope $end
$scope begin L1_CPU_Xreg[16] $end
$var wire 1 t# L1_wr_a3 $end
$upscope $end
$scope begin L1_CPU_Xreg[17] $end
$var wire 1 u# L1_wr_a3 $end
$upscope $end
$scope begin L1_CPU_Xreg[18] $end
$var wire 1 v# L1_wr_a3 $end
$upscope $end
$scope begin L1_CPU_Xreg[19] $end
$var wire 1 w# L1_wr_a3 $end
$upscope $end
$scope begin L1_CPU_Xreg[20] $end
$var wire 1 x# L1_wr_a3 $end
$upscope $end
$scope begin L1_CPU_Xreg[21] $end
$var wire 1 y# L1_wr_a3 $end
$upscope $end
$scope begin L1_CPU_Xreg[22] $end
$var wire 1 z# L1_wr_a3 $end
$upscope $end
$scope begin L1_CPU_Xreg[23] $end
$var wire 1 {# L1_wr_a3 $end
$upscope $end
$scope begin L1_CPU_Xreg[24] $end
$var wire 1 |# L1_wr_a3 $end
$upscope $end
$scope begin L1_CPU_Xreg[25] $end
$var wire 1 }# L1_wr_a3 $end
$upscope $end
$scope begin L1_CPU_Xreg[26] $end
$var wire 1 ~# L1_wr_a3 $end
$upscope $end
$scope begin L1_CPU_Xreg[27] $end
$var wire 1 !$ L1_wr_a3 $end
$upscope $end
$scope begin L1_CPU_Xreg[28] $end
$var wire 1 "$ L1_wr_a3 $end
$upscope $end
$scope begin L1_CPU_Xreg[29] $end
$var wire 1 #$ L1_wr_a3 $end
$upscope $end
$scope begin L1_CPU_Xreg[30] $end
$var wire 1 $$ L1_wr_a3 $end
$upscope $end
$scope begin L1_CPU_Xreg[31] $end
$var wire 1 %$ L1_wr_a3 $end
$upscope $end
$scope begin L1gen_CPU_Dmem[0] $end
$upscope $end
$scope begin L1gen_CPU_Dmem[1] $end
$upscope $end
$scope begin L1gen_CPU_Dmem[2] $end
$upscope $end
$scope begin L1gen_CPU_Dmem[3] $end
$upscope $end
$scope begin L1gen_CPU_Dmem[4] $end
$upscope $end
$scope begin L1gen_CPU_Dmem[5] $end
$upscope $end
$scope begin L1gen_CPU_Dmem[6] $end
$upscope $end
$scope begin L1gen_CPU_Dmem[7] $end
$upscope $end
$scope begin L1gen_CPU_Dmem[8] $end
$upscope $end
$scope begin L1gen_CPU_Dmem[9] $end
$upscope $end
$scope begin L1gen_CPU_Dmem[10] $end
$upscope $end
$scope begin L1gen_CPU_Dmem[11] $end
$upscope $end
$scope begin L1gen_CPU_Dmem[12] $end
$upscope $end
$scope begin L1gen_CPU_Dmem[13] $end
$upscope $end
$scope begin L1gen_CPU_Dmem[14] $end
$upscope $end
$scope begin L1gen_CPU_Dmem[15] $end
$upscope $end
$scope begin L1gen_CPU_Xreg[0] $end
$upscope $end
$scope begin L1gen_CPU_Xreg[1] $end
$upscope $end
$scope begin L1gen_CPU_Xreg[2] $end
$upscope $end
$scope begin L1gen_CPU_Xreg[3] $end
$upscope $end
$scope begin L1gen_CPU_Xreg[4] $end
$upscope $end
$scope begin L1gen_CPU_Xreg[5] $end
$upscope $end
$scope begin L1gen_CPU_Xreg[6] $end
$upscope $end
$scope begin L1gen_CPU_Xreg[7] $end
$upscope $end
$scope begin L1gen_CPU_Xreg[8] $end
$upscope $end
$scope begin L1gen_CPU_Xreg[9] $end
$upscope $end
$scope begin L1gen_CPU_Xreg[10] $end
$upscope $end
$scope begin L1gen_CPU_Xreg[11] $end
$upscope $end
$scope begin L1gen_CPU_Xreg[12] $end
$upscope $end
$scope begin L1gen_CPU_Xreg[13] $end
$upscope $end
$scope begin L1gen_CPU_Xreg[14] $end
$upscope $end
$scope begin L1gen_CPU_Xreg[15] $end
$upscope $end
$scope begin L1gen_CPU_Xreg[16] $end
$upscope $end
$scope begin L1gen_CPU_Xreg[17] $end
$upscope $end
$scope begin L1gen_CPU_Xreg[18] $end
$upscope $end
$scope begin L1gen_CPU_Xreg[19] $end
$upscope $end
$scope begin L1gen_CPU_Xreg[20] $end
$upscope $end
$scope begin L1gen_CPU_Xreg[21] $end
$upscope $end
$scope begin L1gen_CPU_Xreg[22] $end
$upscope $end
$scope begin L1gen_CPU_Xreg[23] $end
$upscope $end
$scope begin L1gen_CPU_Xreg[24] $end
$upscope $end
$scope begin L1gen_CPU_Xreg[25] $end
$upscope $end
$scope begin L1gen_CPU_Xreg[26] $end
$upscope $end
$scope begin L1gen_CPU_Xreg[27] $end
$upscope $end
$scope begin L1gen_CPU_Xreg[28] $end
$upscope $end
$scope begin L1gen_CPU_Xreg[29] $end
$upscope $end
$scope begin L1gen_CPU_Xreg[30] $end
$upscope $end
$scope begin L1gen_CPU_Xreg[31] $end
$upscope $end
$scope module gen_clkP_CPU_dmem_rd_en_a5 $end
$var wire 1 M free_clk $end
$var wire 1 &$ func_en $end
$var wire 1 Z gated_clk $end
$var wire 1 '$ gating_override $end
$var wire 1 4 pwr_en $end
$upscope $end
$scope module gen_clkP_CPU_rd_valid_a2 $end
$var wire 1 M free_clk $end
$var wire 1 ($ func_en $end
$var wire 1 Y gated_clk $end
$var wire 1 )$ gating_override $end
$var wire 1 ? pwr_en $end
$upscope $end
$scope module gen_clkP_CPU_rd_valid_a3 $end
$var wire 1 M free_clk $end
$var wire 1 *$ func_en $end
$var wire 1 X gated_clk $end
$var wire 1 +$ gating_override $end
$var wire 1 =# pwr_en $end
$upscope $end
$scope module gen_clkP_CPU_rd_valid_a4 $end
$var wire 1 M free_clk $end
$var wire 1 ,$ func_en $end
$var wire 1 W gated_clk $end
$var wire 1 -$ gating_override $end
$var wire 1 ># pwr_en $end
$upscope $end
$scope module gen_clkP_CPU_rd_valid_a5 $end
$var wire 1 M free_clk $end
$var wire 1 .$ func_en $end
$var wire 1 V gated_clk $end
$var wire 1 /$ gating_override $end
$var wire 1 ?# pwr_en $end
$upscope $end
$scope module gen_clkP_CPU_rs1_valid_a2 $end
$var wire 1 M free_clk $end
$var wire 1 0$ func_en $end
$var wire 1 U gated_clk $end
$var wire 1 1$ gating_override $end
$var wire 1 H pwr_en $end
$upscope $end
$scope module gen_clkP_CPU_rs2_valid_a2 $end
$var wire 1 M free_clk $end
$var wire 1 2$ func_en $end
$var wire 1 T gated_clk $end
$var wire 1 3$ gating_override $end
$var wire 1 I pwr_en $end
$upscope $end
$upscope $end
$upscope $end
$scope module mem $end
$var wire 8 4$ addr0 [7:0] $end
$var wire 1 # clk0 $end
$var wire 1 5$ csb0 $end
$var wire 32 6$ din0 [31:0] $end
$var wire 1 + web0 $end
$var reg 8 7$ addr0_reg [7:0] $end
$var reg 1 8$ csb0_reg $end
$var reg 32 9$ din0_reg [31:0] $end
$var reg 32 :$ dout0 [31:0] $end
$var reg 1 ;$ web0_reg $end
$scope begin MEM_READ0 $end
$upscope $end
$scope begin MEM_WRITE0 $end
$upscope $end
$upscope $end
$upscope $end
$upscope $end
$enddefinitions $end
#0
$dumpvars
x;$
bx :$
bx 9$
x8$
bx 7$
bx 6$
05$
bx 4$
03$
12$
01$
10$
0/$
1.$
0-$
1,$
0+$
1*$
0)$
1($
0'$
1&$
x%$
x$$
x#$
x"$
x!$
x~#
x}#
x|#
x{#
xz#
xy#
xx#
xw#
xv#
xu#
xt#
xs#
xr#
xq#
xp#
xo#
xn#
xm#
xl#
xk#
xj#
xi#
xh#
xg#
xf#
xe#
xd#
xc#
xb#
xa#
x`#
x_#
x^#
x]#
x\#
x[#
xZ#
xY#
xX#
xW#
xV#
xU#
xT#
bx S#
xR#
xQ#
xP#
xO#
xN#
xM#
xL#
bx K#
bx J#
bx I#
xH#
bx G#
xF#
bx E#
bx D#
xC#
xB#
xA#
x@#
x?#
x>#
x=#
bx <#
bx ;#
bx :#
bx 9#
bx 8#
bx 7#
bx 6#
bx 5#
x4#
x3#
x2#
x1#
x0#
x/#
x.#
x-#
x,#
x+#
x*#
x)#
x(#
x'#
x&#
x%#
x$#
x##
x"#
x!#
x~"
x}"
x|"
x{"
xz"
xy"
xx"
xw"
xv"
xu"
xt"
xs"
xr"
xq"
xp"
xo"
xn"
xm"
xl"
xk"
xj"
xi"
xh"
xg"
xf"
xe"
xd"
xc"
xb"
xa"
x`"
x_"
x^"
x]"
x\"
x["
xZ"
xY"
xX"
xW"
xV"
xU"
xT"
xS"
xR"
xQ"
xP"
xO"
xN"
xM"
xL"
xK"
xJ"
xI"
xH"
xG"
xF"
xE"
xD"
xC"
xB"
xA"
x@"
x?"
x>"
x="
x<"
x;"
x:"
bx 9"
bx 8"
bx 7"
bx 6"
bx 5"
bx 4"
bx 3"
bx 2"
bx 1"
bx 0"
bx /"
bx ."
bx -"
bx ,"
x+"
x*"
x)"
x("
x'"
x&"
x%"
x$"
x#"
x""
x!"
x~
x}
x|
x{
xz
xy
xx
xw
xv
xu
xt
xs
xr
xq
xp
xo
xn
xm
xl
xk
xj
xi
xh
xg
bx f
bx e
bx d
bx c
bx b
bx a
x`
x_
bx ^
bx ]
x\
x[
0Z
0Y
0X
0W
0V
0U
0T
bx S
bx R
bx Q
bx P
bx O
bx N
0M
xL
xK
xJ
xI
xH
xG
bx F
bx E
xD
xC
bx B
bx A
0@
x?
bx >
x=
x<
x;
x:
x9
bx 8
x7
x6
x5
x4
bx 3
bx 2
bx 1
bx 0
bx /
bx .
bx -
bx ,
x+
bx *
bx )
b0 (
0'
x&
bx %
bx $
0#
bx "
b100000000010010010011 !
$end
#5000
0+
b0 ,
b0 0
b0 4$
b10101100000000010100010011 !
0@#
b100000000010010010011 %
b100000000010010010011 *
b100000000010010010011 6$
b0 $
b0 )
b0 /
1&
1@
1'
b1 (
08$
1Z
1Y
1X
1W
1V
1U
1T
1M
1#
#10000
0Z
0Y
0X
0W
0V
0U
0T
0M
0#
#15000
b0 2
b0 S
b10110010011 !
b0 d
b1 ,
b1 0
b1 4$
0A#
1@#
b10101100000000010100010011 %
b10101100000000010100010011 *
b10101100000000010100010011 6$
b1 $
b1 )
b1 /
b10 (
b100000000010010010011 9$
b0 7$
0;$
1Z
1Y
1X
1W
1V
1U
1T
1M
1#
#20000
0Z
0Y
0X
0W
0V
0U
0T
0M
0#
#25000
b100010010011 !
b10 ,
b10 0
b10 4$
b100 ,"
b0 6#
1A#
0B#
b10110010011 %
b10110010011 *
b10110010011 6$
b10 $
b10 )
b10 /
b11 (
b10101100000000010100010011 9$
b1 7$
1Z
1Y
1X
1W
1V
1U
1T
1M
1#
#30000
0Z
0Y
0X
0W
0V
0U
0T
0M
0#
#35000
b101110001000100010110011 !
b11 ,
b11 0
b11 4$
0C#
1B#
b0 7#
b100 8"
b100010010011 %
b100010010011 *
b100010010011 6$
b11 $
b11 )
b11 /
b100 (
b10110010011 9$
b10 7$
1Z
1Y
1X
1W
1V
1U
1T
1M
1#
#40000
0Z
0Y
0X
0W
0V
0U
0T
0M
0#
#45000
b101011000010110010011 !
b100 ,
b100 0
b100 4$
b100 9"
b0 8#
1C#
b101110001000100010110011 %
b101110001000100010110011 *
b101110001000100010110011 6$
b100 $
b100 )
b100 /
b101 (
b100010010011 9$
b11 7$
1Z
1Y
1X
1W
1V
1U
1T
1M
1#
#50000
0Z
0Y
0X
0W
0V
0U
0T
0M
0#
#55000
b11111110101001011001110011100011 !
b101 ,
b101 0
b101 4$
b101011000010110010011 %
b101011000010110010011 *
b101011000010110010011 6$
b101 $
b101 )
b101 /
b110 (
b101110001000100010110011 9$
b100 7$
1Z
1Y
1X
1W
1V
1U
1T
1M
1#
#60000
0Z
0Y
0X
0W
0V
0U
0T
0M
0#
#65000
b101110001000100010110011 !
b110 ,
b110 0
b110 4$
b11111110101001011001110011100011 %
b11111110101001011001110011100011 *
b11111110101001011001110011100011 6$
b110 $
b110 )
b110 /
b111 (
b10001 "
b10001 .
b10001 3
b10001 S#
b101011000010110010011 9$
b101 7$
1Z
1Y
1X
1W
1V
1U
1T
1M
1#
#70000
0Z
0Y
0X
0W
0V
0U
0T
0M
0#
#75000
b1000000101110001000100010110011 !
b111 ,
b111 0
b111 4$
b101110001000100010110011 %
b101110001000100010110011 *
b101110001000100010110011 6$
b111 $
b111 )
b111 /
b1000 (
b11111110101001011001110011100011 9$
b110 7$
1Z
1Y
1X
1W
1V
1U
1T
1M
1#
#80000
0Z
0Y
0X
0W
0V
0U
0T
0M
0#
#85000
b1000000100101011000010110110011 !
b1000 ,
b1000 0
b1000 4$
b1000000101110001000100010110011 %
b1000000101110001000100010110011 *
b1000000101110001000100010110011 6$
b1000 $
b1000 )
b1000 /
b1001 (
b101110001000100010110011 9$
b111 7$
1Z
1Y
1X
1W
1V
1U
1T
1M
1#
#90000
0Z
0Y
0X
0W
0V
0U
0T
0M
0#
#95000
b11111110100101011001110011100011 !
b1001 ,
b1001 0
b1001 4$
b1000000100101011000010110110011 %
b1000000100101011000010110110011 *
b1000000100101011000010110110011 6$
b1001 $
b1001 )
b1001 /
b1010 (
b1000000101110001000100010110011 9$
b1000 7$
1Z
1Y
1X
1W
1V
1U
1T
1M
1#
#100000
0Z
0Y
0X
0W
0V
0U
0T
0M
0#
#105000
b1000000101110001000100010110011 !
b1010 ,
b1010 0
b1010 4$
b11111110100101011001110011100011 %
b11111110100101011001110011100011 *
b11111110100101011001110011100011 6$
b1010 $
b1010 )
b1010 /
b1011 (
b1000000100101011000010110110011 9$
b1001 7$
1Z
1Y
1X
1W
1V
1U
1T
1M
1#
#110000
0Z
0Y
0X
0W
0V
0U
0T
0M
0#
#115000
b11111110000000000000000011100011 !
b1011 ,
b1011 0
b1011 4$
b1000000101110001000100010110011 %
b1000000101110001000100010110011 *
b1000000101110001000100010110011 6$
b1011 $
b1011 )
b1011 /
b1100 (
b11111110100101011001110011100011 9$
b1010 7$
1Z
1Y
1X
1W
1V
1U
1T
1M
1#
#120000
0Z
0Y
0X
0W
0V
0U
0T
0M
0#
#125000
b0 !
b1100 ,
b1100 0
b1100 4$
b11111110000000000000000011100011 %
b11111110000000000000000011100011 *
b11111110000000000000000011100011 6$
b1100 $
b1100 )
b1100 /
b1101 (
b1000000101110001000100010110011 9$
b1011 7$
1Z
1Y
1X
1W
1V
1U
1T
1M
1#
#130000
0Z
0Y
0X
0W
0V
0U
0T
0M
0#
