Spice/signals.vcd
$date
	Thu Feb 16 08:57:33 2023
$end
$version
	Icarus Verilog
$end
$timescale
	1ps
$end
$scope module vsdmemsoc_tb $end
$var wire 1 ! vgnd $end
$var wire 1 " vpwr $end
$var wire 32 # wbs_dat_o [31:0] $end
$var wire 1 $ wbs_ack_o $end
$var wire 32 % ROM [31:0] $end
$var wire 10 & OUT [9:0] $end
$var reg 1 ' ext_clk $end
$var reg 1 ( reset $end
$var reg 1 ) wb_clk_i $end
$var reg 1 * wb_rst_i $end
$var reg 8 + wbs_adr_i [7:0] $end
$var reg 1 , wbs_cyc_i $end
$var reg 32 - wbs_dat_i [31:0] $end
$var reg 4 . wbs_sel_i [3:0] $end
$var reg 1 / wbs_stb_i $end
$var reg 1 0 wbs_we_i $end
$var integer 32 1 i [31:0] $end
$scope module uut $end
$var wire 1 ' ext_clk $end
$var wire 1 ( ext_rst $end
$var wire 1 ) wb_clk_i $end
$var wire 1 * wb_rst_i $end
$var wire 8 2 wbs_adr_i [7:0] $end
$var wire 1 , wbs_cyc_i $end
$var wire 32 3 wbs_dat_i [31:0] $end
$var wire 4 4 wbs_sel_i [3:0] $end
$var wire 1 / wbs_stb_i $end
$var wire 1 0 wbs_we_i $end
$var wire 1 5 mem_wr $end
$var wire 1 6 mem_clk $end
$var wire 8 7 mem_addr [7:0] $end
$var wire 1 8 in_rst $end
$var wire 32 9 imem_data [31:0] $end
$var wire 8 : imem_addr [7:0] $end
$var wire 10 ; OUT [9:0] $end
$var reg 32 < mem_din [31:0] $end
$var reg 1 $ wbs_ack_o $end
$var reg 32 = wbs_dat_o [31:0] $end
$scope module core $end
$var wire 1 ' CLK $end
$var wire 1 > CPU_dmem_rd_en_a4 $end
$var wire 1 ? CPU_dmem_wr_en_a4 $end
$var wire 1 @ CPU_funct3_valid_a1 $end
$var wire 1 A CPU_funct7_valid_a1 $end
$var wire 32 B CPU_instr_a1 [31:0] $end
$var wire 1 C CPU_is_i_instr_a1 $end
$var wire 1 D CPU_is_jump_a1 $end
$var wire 1 E CPU_is_r_instr_a1 $end
$var wire 1 F CPU_is_s_instr_a1 $end
$var wire 1 G CPU_is_u_instr_a1 $end
$var wire 32 H CPU_ld_data_a5 [31:0] $end
$var wire 1 I CPU_rd_valid_a1 $end
$var wire 1 J CPU_reset_a0 $end
$var wire 32 K CPU_rf_rd_data1_a2 [31:0] $end
$var wire 32 L CPU_rf_rd_data2_a2 [31:0] $end
$var wire 1 M CPU_rf_rd_en1_a2 $end
$var wire 1 N CPU_rf_rd_en2_a2 $end
$var wire 5 O CPU_rf_rd_index1_a2 [4:0] $end
$var wire 5 P CPU_rf_rd_index2_a2 [4:0] $end
$var wire 1 Q CPU_rf_wr_en_a3 $end
$var wire 1 R CPU_rs1_valid_a1 $end
$var wire 1 S CPU_rs2_valid_a1 $end
$var wire 1 T CPU_valid_jump_a3 $end
$var wire 1 U CPU_valid_load_a3 $end
$var wire 1 V CPU_valid_taken_br_a3 $end
$var wire 1 W clk $end
$var wire 1 8 reset $end
$var wire 32 X w_CPU_dmem_rd_data_a4 [31:0] $end
$var wire 5 Y w_CPU_rs2_a1 [4:0] $end
$var wire 5 Z w_CPU_rs1_a1 [4:0] $end
$var wire 5 [ w_CPU_rd_a1 [4:0] $end
$var wire 32 \ imem_data [31:0] $end
$var wire 8 ] imem_addr [7:0] $end
$var wire 1 ^ clkP_CPU_rs2_valid_a2 $end
$var wire 1 _ clkP_CPU_rs1_valid_a2 $end
$var wire 1 ` clkP_CPU_rd_valid_a5 $end
$var wire 1 a clkP_CPU_rd_valid_a4 $end
$var wire 1 b clkP_CPU_rd_valid_a3 $end
$var wire 1 c clkP_CPU_rd_valid_a2 $end
$var wire 1 d clkP_CPU_dmem_rd_en_a5 $end
$var wire 1 e CPU_valid_a3 $end
$var wire 1 f CPU_taken_br_a3 $end
$var wire 32 g CPU_src2_value_a2 [31:0] $end
$var wire 32 h CPU_src1_value_a2 [31:0] $end
$var wire 1 i CPU_sltu_result_a3 $end
$var wire 1 j CPU_sltiu_result_a3 $end
$var wire 5 k CPU_rf_wr_index_a3 [4:0] $end
$var wire 32 l CPU_rf_wr_data_a3 [31:0] $end
$var wire 32 m CPU_result_a3 [31:0] $end
$var wire 32 n CPU_pc_a0 [31:0] $end
$var wire 7 o CPU_opcode_a1 [6:0] $end
$var wire 32 p CPU_jalr_tgt_pc_a2 [31:0] $end
$var wire 1 q CPU_is_xori_a1 $end
$var wire 1 r CPU_is_xor_a1 $end
$var wire 1 s CPU_is_sw_a1 $end
$var wire 1 t CPU_is_sub_a1 $end
$var wire 1 u CPU_is_srli_a1 $end
$var wire 1 v CPU_is_srl_a1 $end
$var wire 1 w CPU_is_srai_a1 $end
$var wire 1 x CPU_is_sra_a1 $end
$var wire 1 y CPU_is_sltu_a1 $end
$var wire 1 z CPU_is_sltiu_a1 $end
$var wire 1 { CPU_is_slti_a1 $end
$var wire 1 | CPU_is_slt_a1 $end
$var wire 1 } CPU_is_slli_a1 $end
$var wire 1 ~ CPU_is_sll_a1 $end
$var wire 1 !" CPU_is_sh_a1 $end
$var wire 1 "" CPU_is_sb_a1 $end
$var wire 1 #" CPU_is_ori_a1 $end
$var wire 1 $" CPU_is_or_a1 $end
$var wire 1 %" CPU_is_lui_a1 $end
$var wire 1 &" CPU_is_load_a1 $end
$var wire 1 '" CPU_is_jalr_a1 $end
$var wire 1 (" CPU_is_jal_a1 $end
$var wire 1 )" CPU_is_j_instr_a1 $end
$var wire 1 *" CPU_is_bne_a1 $end
$var wire 1 +" CPU_is_bltu_a1 $end
$var wire 1 ," CPU_is_blt_a1 $end
$var wire 1 -" CPU_is_bgeu_a1 $end
$var wire 1 ." CPU_is_bge_a1 $end
$var wire 1 /" CPU_is_beq_a1 $end
$var wire 1 0" CPU_is_b_instr_a1 $end
$var wire 1 1" CPU_is_auipc_a1 $end
$var wire 1 2" CPU_is_andi_a1 $end
$var wire 1 3" CPU_is_and_a1 $end
$var wire 1 4" CPU_is_addi_a1 $end
$var wire 1 5" CPU_is_add_a1 $end
$var wire 32 6" CPU_inc_pc_a1 [31:0] $end
$var wire 32 7" CPU_imm_a1 [31:0] $end
$var wire 7 8" CPU_funct7_a1 [6:0] $end
$var wire 3 9" CPU_funct3_a1 [2:0] $end
$var wire 32 :" CPU_dmem_wr_data_a4 [31:0] $end
$var wire 4 ;" CPU_dmem_addr_a4 [3:0] $end
$var wire 11 <" CPU_dec_bits_a1 [10:0] $end
$var wire 32 =" CPU_br_tgt_pc_a2 [31:0] $end
$var reg 32 >" CPU_br_tgt_pc_a3 [31:0] $end
$var reg 32 ?" CPU_dmem_rd_data_a5 [31:0] $end
$var reg 32 @" CPU_imm_a2 [31:0] $end
$var reg 32 A" CPU_imm_a3 [31:0] $end
$var reg 32 B" CPU_inc_pc_a2 [31:0] $end
$var reg 32 C" CPU_inc_pc_a3 [31:0] $end
$var reg 1 D" CPU_is_add_a2 $end
$var reg 1 E" CPU_is_add_a3 $end
$var reg 1 F" CPU_is_addi_a2 $end
$var reg 1 G" CPU_is_addi_a3 $end
$var reg 1 H" CPU_is_and_a2 $end
$var reg 1 I" CPU_is_and_a3 $end
$var reg 1 J" CPU_is_andi_a2 $end
$var reg 1 K" CPU_is_andi_a3 $end
$var reg 1 L" CPU_is_auipc_a2 $end
$var reg 1 M" CPU_is_auipc_a3 $end
$var reg 1 N" CPU_is_beq_a2 $end
$var reg 1 O" CPU_is_beq_a3 $end
$var reg 1 P" CPU_is_beq_a4 $end
$var reg 1 Q" CPU_is_beq_a5 $end
$var reg 1 R" CPU_is_bge_a2 $end
$var reg 1 S" CPU_is_bge_a3 $end
$var reg 1 T" CPU_is_bge_a4 $end
$var reg 1 U" CPU_is_bge_a5 $end
$var reg 1 V" CPU_is_bgeu_a2 $end
$var reg 1 W" CPU_is_bgeu_a3 $end
$var reg 1 X" CPU_is_bgeu_a4 $end
$var reg 1 Y" CPU_is_bgeu_a5 $end
$var reg 1 Z" CPU_is_blt_a2 $end
$var reg 1 [" CPU_is_blt_a3 $end
$var reg 1 \" CPU_is_blt_a4 $end
$var reg 1 ]" CPU_is_blt_a5 $end
$var reg 1 ^" CPU_is_bltu_a2 $end
$var reg 1 _" CPU_is_bltu_a3 $end
$var reg 1 `" CPU_is_bltu_a4 $end
$var reg 1 a" CPU_is_bltu_a5 $end
$var reg 1 b" CPU_is_bne_a2 $end
$var reg 1 c" CPU_is_bne_a3 $end
$var reg 1 d" CPU_is_bne_a4 $end
$var reg 1 e" CPU_is_bne_a5 $end
$var reg 1 f" CPU_is_jal_a2 $end
$var reg 1 g" CPU_is_jal_a3 $end
$var reg 1 h" CPU_is_jalr_a2 $end
$var reg 1 i" CPU_is_jalr_a3 $end
$var reg 1 j" CPU_is_jump_a2 $end
$var reg 1 k" CPU_is_jump_a3 $end
$var reg 1 l" CPU_is_load_a2 $end
$var reg 1 m" CPU_is_load_a3 $end
$var reg 1 n" CPU_is_lui_a2 $end
$var reg 1 o" CPU_is_lui_a3 $end
$var reg 1 p" CPU_is_or_a2 $end
$var reg 1 q" CPU_is_or_a3 $end
$var reg 1 r" CPU_is_ori_a2 $end
$var reg 1 s" CPU_is_ori_a3 $end
$var reg 1 t" CPU_is_s_instr_a2 $end
$var reg 1 u" CPU_is_s_instr_a3 $end
$var reg 1 v" CPU_is_s_instr_a4 $end
$var reg 1 w" CPU_is_sb_a2 $end
$var reg 1 x" CPU_is_sb_a3 $end
$var reg 1 y" CPU_is_sb_a4 $end
$var reg 1 z" CPU_is_sb_a5 $end
$var reg 1 {" CPU_is_sh_a2 $end
$var reg 1 |" CPU_is_sh_a3 $end
$var reg 1 }" CPU_is_sh_a4 $end
$var reg 1 ~" CPU_is_sh_a5 $end
$var reg 1 !# CPU_is_sll_a2 $end
$var reg 1 "# CPU_is_sll_a3 $end
$var reg 1 ## CPU_is_slli_a2 $end
$var reg 1 $# CPU_is_slli_a3 $end
$var reg 1 %# CPU_is_slt_a2 $end
$var reg 1 &# CPU_is_slt_a3 $end
$var reg 1 '# CPU_is_slti_a2 $end
$var reg 1 (# CPU_is_slti_a3 $end
$var reg 1 )# CPU_is_sltiu_a2 $end
$var reg 1 *# CPU_is_sltiu_a3 $end
$var reg 1 +# CPU_is_sltu_a2 $end
$var reg 1 ,# CPU_is_sltu_a3 $end
$var reg 1 -# CPU_is_sra_a2 $end
$var reg 1 .# CPU_is_sra_a3 $end
$var reg 1 /# CPU_is_srai_a2 $end
$var reg 1 0# CPU_is_srai_a3 $end
$var reg 1 1# CPU_is_srl_a2 $end
$var reg 1 2# CPU_is_srl_a3 $end
$var reg 1 3# CPU_is_srli_a2 $end
$var reg 1 4# CPU_is_srli_a3 $end
$var reg 1 5# CPU_is_sub_a2 $end
$var reg 1 6# CPU_is_sub_a3 $end
$var reg 1 7# CPU_is_sw_a2 $end
$var reg 1 8# CPU_is_sw_a3 $end
$var reg 1 9# CPU_is_sw_a4 $end
$var reg 1 :# CPU_is_sw_a5 $end
$var reg 1 ;# CPU_is_xor_a2 $end
$var reg 1 <# CPU_is_xor_a3 $end
$var reg 1 =# CPU_is_xori_a2 $end
$var reg 1 ># CPU_is_xori_a3 $end
$var reg 32 ?# CPU_jalr_tgt_pc_a3 [31:0] $end
$var reg 32 @# CPU_pc_a1 [31:0] $end
$var reg 32 A# CPU_pc_a2 [31:0] $end
$var reg 32 B# CPU_pc_a3 [31:0] $end
$var reg 5 C# CPU_rd_a2 [4:0] $end
$var reg 5 D# CPU_rd_a3 [4:0] $end
$var reg 5 E# CPU_rd_a4 [4:0] $end
$var reg 5 F# CPU_rd_a5 [4:0] $end
$var reg 1 G# CPU_rd_valid_a2 $end
$var reg 1 H# CPU_rd_valid_a3 $end
$var reg 1 I# CPU_rd_valid_a4 $end
$var reg 1 J# CPU_reset_a1 $end
$var reg 1 K# CPU_reset_a2 $end
$var reg 1 L# CPU_reset_a3 $end
$var reg 1 M# CPU_reset_a4 $end
$var reg 4 N# CPU_result_a4 [5:2] $end
$var reg 5 O# CPU_rs1_a2 [4:0] $end
$var reg 1 P# CPU_rs1_valid_a2 $end
$var reg 5 Q# CPU_rs2_a2 [4:0] $end
$var reg 1 R# CPU_rs2_valid_a2 $end
$var reg 32 S# CPU_src1_value_a3 [31:0] $end
$var reg 32 T# CPU_src2_value_a3 [31:0] $end
$var reg 32 U# CPU_src2_value_a4 [31:0] $end
$var reg 1 V# CPU_valid_a4 $end
$var reg 1 W# CPU_valid_jump_a4 $end
$var reg 1 X# CPU_valid_jump_a5 $end
$var reg 1 Y# CPU_valid_load_a4 $end
$var reg 1 Z# CPU_valid_load_a5 $end
$var reg 1 [# CPU_valid_taken_br_a4 $end
$var reg 1 \# CPU_valid_taken_br_a5 $end
$var reg 10 ]# OUT [9:0] $end
$scope begin L1_CPU_Dmem[0] $end
$var wire 1 ^# L1_wr_a4 $end
$upscope $end
$scope begin L1_CPU_Dmem[1] $end
$var wire 1 _# L1_wr_a4 $end
$upscope $end
$scope begin L1_CPU_Dmem[2] $end
$var wire 1 `# L1_wr_a4 $end
$upscope $end
$scope begin L1_CPU_Dmem[3] $end
$var wire 1 a# L1_wr_a4 $end
$upscope $end
$scope begin L1_CPU_Dmem[4] $end
$var wire 1 b# L1_wr_a4 $end
$upscope $end
$scope begin L1_CPU_Dmem[5] $end
$var wire 1 c# L1_wr_a4 $end
$upscope $end
$scope begin L1_CPU_Dmem[6] $end
$var wire 1 d# L1_wr_a4 $end
$upscope $end
$scope begin L1_CPU_Dmem[7] $end
$var wire 1 e# L1_wr_a4 $end
$upscope $end
$scope begin L1_CPU_Dmem[8] $end
$var wire 1 f# L1_wr_a4 $end
$upscope $end
$scope begin L1_CPU_Dmem[9] $end
$var wire 1 g# L1_wr_a4 $end
$upscope $end
$scope begin L1_CPU_Dmem[10] $end
$var wire 1 h# L1_wr_a4 $end
$upscope $end
$scope begin L1_CPU_Dmem[11] $end
$var wire 1 i# L1_wr_a4 $end
$upscope $end
$scope begin L1_CPU_Dmem[12] $end
$var wire 1 j# L1_wr_a4 $end
$upscope $end
$scope begin L1_CPU_Dmem[13] $end
$var wire 1 k# L1_wr_a4 $end
$upscope $end
$scope begin L1_CPU_Dmem[14] $end
$var wire 1 l# L1_wr_a4 $end
$upscope $end
$scope begin L1_CPU_Dmem[15] $end
$var wire 1 m# L1_wr_a4 $end
$upscope $end
$scope begin L1_CPU_Xreg[0] $end
$var wire 1 n# L1_wr_a3 $end
$upscope $end
$scope begin L1_CPU_Xreg[1] $end
$var wire 1 o# L1_wr_a3 $end
$upscope $end
$scope begin L1_CPU_Xreg[2] $end
$var wire 1 p# L1_wr_a3 $end
$upscope $end
$scope begin L1_CPU_Xreg[3] $end
$var wire 1 q# L1_wr_a3 $end
$upscope $end
$scope begin L1_CPU_Xreg[4] $end
$var wire 1 r# L1_wr_a3 $end
$upscope $end
$scope begin L1_CPU_Xreg[5] $end
$var wire 1 s# L1_wr_a3 $end
$upscope $end
$scope begin L1_CPU_Xreg[6] $end
$var wire 1 t# L1_wr_a3 $end
$upscope $end
$scope begin L1_CPU_Xreg[7] $end
$var wire 1 u# L1_wr_a3 $end
$upscope $end
$scope begin L1_CPU_Xreg[8] $end
$var wire 1 v# L1_wr_a3 $end
$upscope $end
$scope begin L1_CPU_Xreg[9] $end
$var wire 1 w# L1_wr_a3 $end
$upscope $end
$scope begin L1_CPU_Xreg[10] $end
$var wire 1 x# L1_wr_a3 $end
$upscope $end
$scope begin L1_CPU_Xreg[11] $end
$var wire 1 y# L1_wr_a3 $end
$upscope $end
$scope begin L1_CPU_Xreg[12] $end
$var wire 1 z# L1_wr_a3 $end
$upscope $end
$scope begin L1_CPU_Xreg[13] $end
$var wire 1 {# L1_wr_a3 $end
$upscope $end
$scope begin L1_CPU_Xreg[14] $end
$var wire 1 |# L1_wr_a3 $end
$upscope $end
$scope begin L1_CPU_Xreg[15] $end
$var wire 1 }# L1_wr_a3 $end
$upscope $end
$scope begin L1_CPU_Xreg[16] $end
$var wire 1 ~# L1_wr_a3 $end
$upscope $end
$scope begin L1_CPU_Xreg[17] $end
$var wire 1 !$ L1_wr_a3 $end
$upscope $end
$scope begin L1_CPU_Xreg[18] $end
$var wire 1 "$ L1_wr_a3 $end
$upscope $end
$scope begin L1_CPU_Xreg[19] $end
$var wire 1 #$ L1_wr_a3 $end
$upscope $end
$scope begin L1_CPU_Xreg[20] $end
$var wire 1 $$ L1_wr_a3 $end
$upscope $end
$scope begin L1_CPU_Xreg[21] $end
$var wire 1 %$ L1_wr_a3 $end
$upscope $end
$scope begin L1_CPU_Xreg[22] $end
$var wire 1 &$ L1_wr_a3 $end
$upscope $end
$scope begin L1_CPU_Xreg[23] $end
$var wire 1 '$ L1_wr_a3 $end
$upscope $end
$scope begin L1_CPU_Xreg[24] $end
$var wire 1 ($ L1_wr_a3 $end
$upscope $end
$scope begin L1_CPU_Xreg[25] $end
$var wire 1 )$ L1_wr_a3 $end
$upscope $end
$scope begin L1_CPU_Xreg[26] $end
$var wire 1 *$ L1_wr_a3 $end
$upscope $end
$scope begin L1_CPU_Xreg[27] $end
$var wire 1 +$ L1_wr_a3 $end
$upscope $end
$scope begin L1_CPU_Xreg[28] $end
$var wire 1 ,$ L1_wr_a3 $end
$upscope $end
$scope begin L1_CPU_Xreg[29] $end
$var wire 1 -$ L1_wr_a3 $end
$upscope $end
$scope begin L1_CPU_Xreg[30] $end
$var wire 1 .$ L1_wr_a3 $end
$upscope $end
$scope begin L1_CPU_Xreg[31] $end
$var wire 1 /$ L1_wr_a3 $end
$upscope $end
$scope begin L1gen_CPU_Dmem[0] $end
$upscope $end
$scope begin L1gen_CPU_Dmem[1] $end
$upscope $end
$scope begin L1gen_CPU_Dmem[2] $end
$upscope $end
$scope begin L1gen_CPU_Dmem[3] $end
$upscope $end
$scope begin L1gen_CPU_Dmem[4] $end
$upscope $end
$scope begin L1gen_CPU_Dmem[5] $end
$upscope $end
$scope begin L1gen_CPU_Dmem[6] $end
$upscope $end
$scope begin L1gen_CPU_Dmem[7] $end
$upscope $end
$scope begin L1gen_CPU_Dmem[8] $end
$upscope $end
$scope begin L1gen_CPU_Dmem[9] $end
$upscope $end
$scope begin L1gen_CPU_Dmem[10] $end
$upscope $end
$scope begin L1gen_CPU_Dmem[11] $end
$upscope $end
$scope begin L1gen_CPU_Dmem[12] $end
$upscope $end
$scope begin L1gen_CPU_Dmem[13] $end
$upscope $end
$scope begin L1gen_CPU_Dmem[14] $end
$upscope $end
$scope begin L1gen_CPU_Dmem[15] $end
$upscope $end
$scope begin L1gen_CPU_Xreg[0] $end
$upscope $end
$scope begin L1gen_CPU_Xreg[1] $end
$upscope $end
$scope begin L1gen_CPU_Xreg[2] $end
$upscope $end
$scope begin L1gen_CPU_Xreg[3] $end
$upscope $end
$scope begin L1gen_CPU_Xreg[4] $end
$upscope $end
$scope begin L1gen_CPU_Xreg[5] $end
$upscope $end
$scope begin L1gen_CPU_Xreg[6] $end
$upscope $end
$scope begin L1gen_CPU_Xreg[7] $end
$upscope $end
$scope begin L1gen_CPU_Xreg[8] $end
$upscope $end
$scope begin L1gen_CPU_Xreg[9] $end
$upscope $end
$scope begin L1gen_CPU_Xreg[10] $end
$upscope $end
$scope begin L1gen_CPU_Xreg[11] $end
$upscope $end
$scope begin L1gen_CPU_Xreg[12] $end
$upscope $end
$scope begin L1gen_CPU_Xreg[13] $end
$upscope $end
$scope begin L1gen_CPU_Xreg[14] $end
$upscope $end
$scope begin L1gen_CPU_Xreg[15] $end
$upscope $end
$scope begin L1gen_CPU_Xreg[16] $end
$upscope $end
$scope begin L1gen_CPU_Xreg[17] $end
$upscope $end
$scope begin L1gen_CPU_Xreg[18] $end
$upscope $end
$scope begin L1gen_CPU_Xreg[19] $end
$upscope $end
$scope begin L1gen_CPU_Xreg[20] $end
$upscope $end
$scope begin L1gen_CPU_Xreg[21] $end
$upscope $end
$scope begin L1gen_CPU_Xreg[22] $end
$upscope $end
$scope begin L1gen_CPU_Xreg[23] $end
$upscope $end
$scope begin L1gen_CPU_Xreg[24] $end
$upscope $end
$scope begin L1gen_CPU_Xreg[25] $end
$upscope $end
$scope begin L1gen_CPU_Xreg[26] $end
$upscope $end
$scope begin L1gen_CPU_Xreg[27] $end
$upscope $end
$scope begin L1gen_CPU_Xreg[28] $end
$upscope $end
$scope begin L1gen_CPU_Xreg[29] $end
$upscope $end
$scope begin L1gen_CPU_Xreg[30] $end
$upscope $end
$scope begin L1gen_CPU_Xreg[31] $end
$upscope $end
$scope module gen_clkP_CPU_dmem_rd_en_a5 $end
$var wire 1 W free_clk $end
$var wire 1 0$ func_en $end
$var wire 1 d gated_clk $end
$var wire 1 1$ gating_override $end
$var wire 1 > pwr_en $end
$upscope $end
$scope module gen_clkP_CPU_rd_valid_a2 $end
$var wire 1 W free_clk $end
$var wire 1 2$ func_en $end
$var wire 1 c gated_clk $end
$var wire 1 3$ gating_override $end
$var wire 1 I pwr_en $end
$upscope $end
$scope module gen_clkP_CPU_rd_valid_a3 $end
$var wire 1 W free_clk $end
$var wire 1 4$ func_en $end
$var wire 1 b gated_clk $end
$var wire 1 5$ gating_override $end
$var wire 1 G# pwr_en $end
$upscope $end
$scope module gen_clkP_CPU_rd_valid_a4 $end
$var wire 1 W free_clk $end
$var wire 1 6$ func_en $end
$var wire 1 a gated_clk $end
$var wire 1 7$ gating_override $end
$var wire 1 H# pwr_en $end
$upscope $end
$scope module gen_clkP_CPU_rd_valid_a5 $end
$var wire 1 W free_clk $end
$var wire 1 8$ func_en $end
$var wire 1 ` gated_clk $end
$var wire 1 9$ gating_override $end
$var wire 1 I# pwr_en $end
$upscope $end
$scope module gen_clkP_CPU_rs1_valid_a2 $end
$var wire 1 W free_clk $end
$var wire 1 :$ func_en $end
$var wire 1 _ gated_clk $end
$var wire 1 ;$ gating_override $end
$var wire 1 R pwr_en $end
$upscope $end
$scope module gen_clkP_CPU_rs2_valid_a2 $end
$var wire 1 W free_clk $end
$var wire 1 <$ func_en $end
$var wire 1 ^ gated_clk $end
$var wire 1 =$ gating_override $end
$var wire 1 S pwr_en $end
$upscope $end
$upscope $end
$scope module mem $end
$var wire 8 >$ addr0 [7:0] $end
$var wire 8 ?$ addr1 [7:0] $end
$var wire 1 6 clk0 $end
$var wire 1 6 clk1 $end
$var wire 1 @$ csb0 $end
$var wire 1 A$ csb1 $end
$var wire 32 B$ din0 [31:0] $end
$var wire 1 5 web0 $end
$var wire 4 C$ wmask0 [3:0] $end
$var reg 8 D$ addr0_reg [7:0] $end
$var reg 8 E$ addr1_reg [7:0] $end
$var reg 1 F$ csb0_reg $end
$var reg 1 G$ csb1_reg $end
$var reg 32 H$ din0_reg [31:0] $end
$var reg 32 I$ dout0 [31:0] $end
$var reg 32 J$ dout1 [31:0] $end
$var reg 1 K$ web0_reg $end
$var reg 4 L$ wmask0_reg [3:0] $end
$scope begin MEM_READ0 $end
$upscope $end
$scope begin MEM_READ1 $end
$upscope $end
$scope begin MEM_WRITE0 $end
$upscope $end
$upscope $end
$upscope $end
$upscope $end
$enddefinitions $end
#0
$dumpvars
bx L$
xK$
bx J$
bx I$
bx H$
xG$
xF$
bx E$
bx D$
b1111 C$
bx B$
1A$
0@$
bx ?$
bx >$
0=$
1<$
0;$
1:$
09$
18$
07$
16$
05$
14$
03$
12$
01$
10$
x/$
x.$
x-$
x,$
x+$
x*$
x)$
x($
x'$
x&$
x%$
x$$
x#$
x"$
x!$
x~#
x}#
x|#
x{#
xz#
xy#
xx#
xw#
xv#
xu#
xt#
xs#
xr#
xq#
xp#
xo#
xn#
xm#
xl#
xk#
xj#
xi#
xh#
xg#
xf#
xe#
xd#
xc#
xb#
xa#
x`#
x_#
x^#
bx ]#
x\#
x[#
xZ#
xY#
xX#
xW#
xV#
bx U#
bx T#
bx S#
xR#
bx Q#
xP#
bx O#
bx N#
xM#
xL#
xK#
xJ#
xI#
xH#
xG#
bx F#
bx E#
bx D#
bx C#
bx B#
bx A#
bx @#
bx ?#
x>#
x=#
x<#
x;#
x:#
x9#
x8#
x7#
x6#
x5#
x4#
x3#
x2#
x1#
x0#
x/#
x.#
x-#
x,#
x+#
x*#
x)#
x(#
x'#
x&#
x%#
x$#
x##
x"#
x!#
x~"
x}"
x|"
x{"
xz"
xy"
xx"
xw"
xv"
xu"
xt"
xs"
xr"
xq"
xp"
xo"
xn"
xm"
xl"
xk"
xj"
xi"
xh"
xg"
xf"
xe"
xd"
xc"
xb"
xa"
x`"
x_"
x^"
x]"
x\"
x["
xZ"
xY"
xX"
xW"
xV"
xU"
xT"
xS"
xR"
xQ"
xP"
xO"
xN"
xM"
xL"
xK"
xJ"
xI"
xH"
xG"
xF"
xE"
xD"
bx C"
bx B"
bx A"
bx @"
bx ?"
bx >"
bx ="
bx <"
bx ;"
bx :"
bx 9"
bx 8"
bx 7"
bx 6"
x5"
x4"
x3"
x2"
x1"
x0"
x/"
x."
x-"
x,"
x+"
x*"
x)"
x("
x'"
x&"
x%"
x$"
x#"
x""
x!"
x~
x}
x|
x{
xz
xy
xx
xw
xv
xu
xt
xs
xr
xq
bx p
bx o
bx n
bx m
bx l
bx k
xj
xi
bx h
bx g
xf
xe
0d
0c
0b
0a
0`
0_
0^
bx ]
bx \
bx [
bx Z
bx Y
bx X
0W
xV
xU
xT
xS
xR
xQ
bx P
bx O
xN
xM
bx L
bx K
1J
xI
bx H
xG
xF
xE
xD
xC
bx B
xA
x@
x?
x>
bx =
bx <
bx ;
bx :
bx 9
18
bx 7
06
15
b0 4
bx 3
bx 2
b0 1
00
0/
b0 .
bx -
0,
bx +
0*
0)
0(
0'
bx &
b100000000010010010011 %
x$
bx #
1"
0!
$end
#5000
b0 7
b0 >$
b0 ?$
05
b10101100000000010100010011 %
b0 #
b0 =
0$
b100000000010010010011 -
b100000000010010010011 3
b100000000010010010011 B$
b0 +
b0 2
b1111 .
b1111 4
10
1,
1/
1(
b1 1
b1111 L$
1K$
0F$
1G$
16
1)
#6000
b0 :
b0 ]
b0 n
1J#
1d
1c
1b
1a
1`
1_
1^
1W
1'
#10000
06
0)
#12000
0d
0c
0b
0a
0`
0_
0^
0W
0'
#15000
b10110010011 %
b1 7
b1 >$
b1 ?$
1$
b100000000010010010011 <
b10101100000000010100010011 -
b10101100000000010100010011 3
b10101100000000010100010011 B$
b1 +
b1 2
b10 1
b0 E$
b100000000010010010011 H$
b0 D$
0K$
16
1)
#18000
1K#
b100 6"
b0 @#
1d
1c
1b
1a
1`
1_
1^
1W
1'
#20000
06
0)
#24000
0d
0c
0b
0a
0`
0_
0^
0W
0'
#25000
b100010010011 %
b10 7
b10 >$
b10 ?$
0$
b10110010011 -
b10110010011 3
b10110010011 B$
b10 +
b10 2
b11 1
b10101100000000010100010011 H$
b1 D$
b1 E$
16
1)
#30000
b100 B"
b0 A#
1L#
06
0)
1d
1c
1b
1a
1`
1_
1^
1W
1'
#35000
b101110001000100010110011 %
b11 7
b11 >$
b11 ?$
1$
b10110010011 <
b100010010011 -
b100010010011 3
b100010010011 B$
b11 +
b11 2
b100 1
b10 E$
b10110010011 H$
b10 D$
16
1)
#36000
0d
0c
0b
0a
0`
0_
0^
0W
0'
#40000
06
0)
#42000
1M#
b0 B#
b100 C"
1d
1c
1b
1a
1`
1_
1^
1W
1'
#45000
b101011000010110010011 %
b100 7
b100 >$
b100 ?$
0$
b101110001000100010110011 -
b101110001000100010110011 3
b101110001000100010110011 B$
b100 +
b100 2
b101 1
b100010010011 H$
b11 D$
b11 E$
16
1)
#48000
0d
0c
0b
0a
0`
0_
0^
0W
0'
#50000
06
0)
#54000
1d
1c
1b
1a
1`
1_
1^
1W
1'
#55000
b11111110101001011001110011100011 %
b101 7
b101 >$
b101 ?$
1$
b101110001000100010110011 <
b101011000010110010011 -
b101011000010110010011 3
b101011000010110010011 B$
b101 +
b101 2
b110 1
b100 E$
b101110001000100010110011 H$
b100 D$
16
1)
#60000
06
0)
0d
0c
0b
0a
0`
0_
0^
0W
0'
#65000
b101110001000100010110011 %
b110 7
b110 >$
b110 ?$
0$
b11111110101001011001110011100011 -
b11111110101001011001110011100011 3
b11111110101001011001110011100011 B$
b110 +
b110 2
b111 1
b101011000010110010011 H$
b101 D$
b101 E$
16
1)
#66000
b10001 &
b10001 ;
b10001 ]#
1d
1c
1b
1a
1`
1_
1^
1W
1'
#70000
06
0)
#72000
0d
0c
0b
0a
0`
0_
0^
0W
0'
#75000
b1000000101110001000100010110011 %
b111 7
b111 >$
b111 ?$
1$
b11111110101001011001110011100011 <
b101110001000100010110011 -
b101110001000100010110011 3
b101110001000100010110011 B$
b111 +
b111 2
b1000 1
b110 E$
b11111110101001011001110011100011 H$
b110 D$
16
1)
#78000
1d
1c
1b
1a
1`
1_
1^
1W
1'
#80000
06
0)
#84000
0d
0c
0b
0a
0`
0_
0^
0W
0'
#85000
b1000000100101011000010110110011 %
b1000 7
b1000 >$
b1000 ?$
0$
b1000000101110001000100010110011 -
b1000000101110001000100010110011 3
b1000000101110001000100010110011 B$
b1000 +
b1000 2
b1001 1
b101110001000100010110011 H$
b111 D$
b111 E$
16
1)
#90000
06
0)
1d
1c
1b
1a
1`
1_
1^
1W
1'
#95000
b11111110100101011001110011100011 %
b1001 7
b1001 >$
b1001 ?$
1$
b1000000101110001000100010110011 <
b1000000100101011000010110110011 -
b1000000100101011000010110110011 3
b1000000100101011000010110110011 B$
b1001 +
b1001 2
b1010 1
b1000 E$
b1000000101110001000100010110011 H$
b1000 D$
16
1)
#96000
0d
0c
0b
0a
0`
0_
0^
0W
0'
#100000
06
0)
#102000
1d
1c
1b
1a
1`
1_
1^
1W
1'
